<?xml version="1.0" encoding="utf-8"?>
<!-- Generator: Adobe Illustrator 18.1.1, SVG Export Plug-In . SVG Version: 6.00 Build 0)  -->
<svg version="1.1" id="Layer_1" xmlns="http://www.w3.org/2000/svg" xmlns:xlink="http://www.w3.org/1999/xlink" x="0px" y="0px"
	 viewBox="0 0 100 111.9" enable-background="new 0 0 100 111.9" xml:space="preserve">
<path d="M100,53.7c0,7.2-15.7,27.8-38.7,50.7c-12.2,12.2-17.9,9.2-14.4-7.6c2.9-14,4.6-12.8-18.8-13c-15.1-0.1-16-0.2-19.4-0.9
	C-3.7,80.3-2.9,70,11.2,53.6c0.2-0.2,1.1-1.3,2.1-2.4C28.6,32.9,58.1,5.6,67.4,0.9c2.2-1.1,2.9-1.2,3.8-0.4C74,3.1,69.4,10,51.8,30
	C34.1,50.1,25.7,62.1,26.5,66.3c0.5,2.9,2.2,3.3,17.6,3.9c22.7,0.9,21.9,0.4,18.5,11.3c-1.4,4.4-1.6,5.8-1.1,6.1
	c1.1,0.4,7-5.5,15.6-15.4c0.9-1.1,1.9-2.2,2.1-2.4c9.3-10.7,9-11.3-6.1-11.5c-10.9-0.2-12.8-0.4-13-1.4c-0.5-1.9,2.8-3.2,11.2-4.6
	C94.7,48.2,100,48.5,100,53.7z"/>
</svg>
